{
  "main.css": "static/css/main.f8bfde3d.css",
  "main.css.map": "static/css/main.f8bfde3d.css.map",
  "main.js": "static/js/main.b9d0bcbf.js",
  "main.js.map": "static/js/main.b9d0bcbf.js.map",
  "static/media/Simple-Line-Icons.eot?v=2.4.0": "static/media/Simple-Line-Icons.f33df365.eot",
  "static/media/Simple-Line-Icons.svg?v=2.4.0": "static/media/Simple-Line-Icons.2fe2efe6.svg",
  "static/media/Simple-Line-Icons.ttf?v=2.4.0": "static/media/Simple-Line-Icons.d2285965.ttf",
  "static/media/Simple-Line-Icons.woff2?v=2.4.0": "static/media/Simple-Line-Icons.0cb0b9c5.woff2",
  "static/media/Simple-Line-Icons.woff?v=2.4.0": "static/media/Simple-Line-Icons.78f07e2c.woff",
  "static/media/ad.svg": "static/media/ad.ead76043.svg",
  "static/media/ae.svg": "static/media/ae.d5017bce.svg",
  "static/media/af.svg": "static/media/af.68d6fe6f.svg",
  "static/media/ag.svg": "static/media/ag.f1c7ec53.svg",
  "static/media/ai.svg": "static/media/ai.ee6ee9bc.svg",
  "static/media/al.svg": "static/media/al.6948c7c3.svg",
  "static/media/am.svg": "static/media/am.57c71f36.svg",
  "static/media/ao.svg": "static/media/ao.65de3f08.svg",
  "static/media/aq.svg": "static/media/aq.21ec1b9c.svg",
  "static/media/ar.svg": "static/media/ar.712051b3.svg",
  "static/media/as.svg": "static/media/as.4c218266.svg",
  "static/media/at.svg": "static/media/at.44a8ad33.svg",
  "static/media/au.svg": "static/media/au.234917b3.svg",
  "static/media/aw.svg": "static/media/aw.f631ae0a.svg",
  "static/media/ax.svg": "static/media/ax.9379f20a.svg",
  "static/media/az.svg": "static/media/az.e79738c6.svg",
  "static/media/ba.svg": "static/media/ba.a8a55bbc.svg",
  "static/media/bb.svg": "static/media/bb.1ba95d58.svg",
  "static/media/bd.svg": "static/media/bd.ac8d97bc.svg",
  "static/media/be.svg": "static/media/be.e83467b8.svg",
  "static/media/bf.svg": "static/media/bf.d5ebc193.svg",
  "static/media/bg.svg": "static/media/bg.fd31fa36.svg",
  "static/media/bh.svg": "static/media/bh.44ef7f2d.svg",
  "static/media/bi.svg": "static/media/bi.aec32be8.svg",
  "static/media/bj.svg": "static/media/bj.56a63073.svg",
  "static/media/bl.svg": "static/media/bl.192ca9f3.svg",
  "static/media/bm.svg": "static/media/bm.62e57b0d.svg",
  "static/media/bn.svg": "static/media/bn.fbe8d8b2.svg",
  "static/media/bo.svg": "static/media/bo.6fb296d5.svg",
  "static/media/bq.svg": "static/media/bq.33213090.svg",
  "static/media/br.svg": "static/media/br.78de6acf.svg",
  "static/media/bs.svg": "static/media/bs.06f208ef.svg",
  "static/media/bt.svg": "static/media/bt.a8c715fb.svg",
  "static/media/bv.svg": "static/media/bv.fb576f4e.svg",
  "static/media/bw.svg": "static/media/bw.ee5c04fc.svg",
  "static/media/by.svg": "static/media/by.f96a9f20.svg",
  "static/media/bz.svg": "static/media/bz.43b35557.svg",
  "static/media/ca.svg": "static/media/ca.fc2f2c1d.svg",
  "static/media/cc.svg": "static/media/cc.df17cb00.svg",
  "static/media/cd.svg": "static/media/cd.8316eaf8.svg",
  "static/media/cf.svg": "static/media/cf.20a25c2a.svg",
  "static/media/cg.svg": "static/media/cg.130e4bd0.svg",
  "static/media/ch.svg": "static/media/ch.12ad982c.svg",
  "static/media/ci.svg": "static/media/ci.02f0fd19.svg",
  "static/media/ck.svg": "static/media/ck.842fc3e1.svg",
  "static/media/cl.svg": "static/media/cl.24a7ff77.svg",
  "static/media/cm.svg": "static/media/cm.809d4c84.svg",
  "static/media/cn.svg": "static/media/cn.bedfd890.svg",
  "static/media/co.svg": "static/media/co.ee16270e.svg",
  "static/media/cr.svg": "static/media/cr.7869c8a8.svg",
  "static/media/cu.svg": "static/media/cu.e509a089.svg",
  "static/media/cv.svg": "static/media/cv.ab2ae825.svg",
  "static/media/cw.svg": "static/media/cw.723c05c5.svg",
  "static/media/cx.svg": "static/media/cx.a3a129f1.svg",
  "static/media/cy.svg": "static/media/cy.1b7095f2.svg",
  "static/media/cz.svg": "static/media/cz.5d1c62c2.svg",
  "static/media/de.svg": "static/media/de.a51d522f.svg",
  "static/media/dj.svg": "static/media/dj.9e5f122a.svg",
  "static/media/dk.svg": "static/media/dk.6d3fd354.svg",
  "static/media/dm.svg": "static/media/dm.0c25d1c9.svg",
  "static/media/do.svg": "static/media/do.46ecd3f1.svg",
  "static/media/dz.svg": "static/media/dz.cbc327cb.svg",
  "static/media/ec.svg": "static/media/ec.0ccc7990.svg",
  "static/media/ee.svg": "static/media/ee.800c650f.svg",
  "static/media/eg.svg": "static/media/eg.6b3ede57.svg",
  "static/media/eh.svg": "static/media/eh.a23d3ca1.svg",
  "static/media/er.svg": "static/media/er.3ad6e1e3.svg",
  "static/media/es-ct.svg": "static/media/es-ct.d045e295.svg",
  "static/media/es.svg": "static/media/es.2d0caa1a.svg",
  "static/media/et.svg": "static/media/et.36557b8c.svg",
  "static/media/eu.svg": "static/media/eu.3dc9dcab.svg",
  "static/media/fi.svg": "static/media/fi.ed0d202e.svg",
  "static/media/fj.svg": "static/media/fj.145f6e91.svg",
  "static/media/fk.svg": "static/media/fk.0346c508.svg",
  "static/media/fm.svg": "static/media/fm.80592cbb.svg",
  "static/media/fo.svg": "static/media/fo.b2a83814.svg",
  "static/media/fontawesome-webfont.eot": "static/media/fontawesome-webfont.674f50d2.eot",
  "static/media/fontawesome-webfont.svg?v=4.7.0": "static/media/fontawesome-webfont.912ec66d.svg",
  "static/media/fontawesome-webfont.ttf?v=4.7.0": "static/media/fontawesome-webfont.b06871f2.ttf",
  "static/media/fontawesome-webfont.woff2?v=4.7.0": "static/media/fontawesome-webfont.af7ae505.woff2",
  "static/media/fontawesome-webfont.woff?v=4.7.0": "static/media/fontawesome-webfont.fee66e71.woff",
  "static/media/fr.svg": "static/media/fr.be1df903.svg",
  "static/media/ga.svg": "static/media/ga.09eba4c8.svg",
  "static/media/gb-eng.svg": "static/media/gb-eng.f445d5ea.svg",
  "static/media/gb-nir.svg": "static/media/gb-nir.bca162fd.svg",
  "static/media/gb-sct.svg": "static/media/gb-sct.6caf73b8.svg",
  "static/media/gb-wls.svg": "static/media/gb-wls.bcc94892.svg",
  "static/media/gb.svg": "static/media/gb.26f575fe.svg",
  "static/media/gd.svg": "static/media/gd.3fcac19b.svg",
  "static/media/ge.svg": "static/media/ge.616a9f1e.svg",
  "static/media/gf.svg": "static/media/gf.142f9db2.svg",
  "static/media/gg.svg": "static/media/gg.c2b5483a.svg",
  "static/media/gh.svg": "static/media/gh.beaf26e1.svg",
  "static/media/gi.svg": "static/media/gi.e833214f.svg",
  "static/media/gl.svg": "static/media/gl.16733452.svg",
  "static/media/gm.svg": "static/media/gm.ad71e499.svg",
  "static/media/gn.svg": "static/media/gn.7136fba9.svg",
  "static/media/gp.svg": "static/media/gp.f270c0dc.svg",
  "static/media/gq.svg": "static/media/gq.6cd4d669.svg",
  "static/media/gr.svg": "static/media/gr.8559fb8b.svg",
  "static/media/gs.svg": "static/media/gs.ffdcf7e8.svg",
  "static/media/gt.svg": "static/media/gt.46328090.svg",
  "static/media/gu.svg": "static/media/gu.b89b682e.svg",
  "static/media/gw.svg": "static/media/gw.1e33dcd6.svg",
  "static/media/gy.svg": "static/media/gy.6373016d.svg",
  "static/media/hk.svg": "static/media/hk.378ff44b.svg",
  "static/media/hm.svg": "static/media/hm.a6b406b9.svg",
  "static/media/hn.svg": "static/media/hn.538bcb99.svg",
  "static/media/hr.svg": "static/media/hr.dc70492e.svg",
  "static/media/ht.svg": "static/media/ht.439ff5b2.svg",
  "static/media/hu.svg": "static/media/hu.1f258db5.svg",
  "static/media/id.svg": "static/media/id.55e54db0.svg",
  "static/media/ie.svg": "static/media/ie.00653f90.svg",
  "static/media/il.svg": "static/media/il.5746b8c5.svg",
  "static/media/im.svg": "static/media/im.f359e4af.svg",
  "static/media/in.svg": "static/media/in.b55580fd.svg",
  "static/media/io.svg": "static/media/io.c3a9a347.svg",
  "static/media/iq.svg": "static/media/iq.3e39395d.svg",
  "static/media/ir.svg": "static/media/ir.58c78eab.svg",
  "static/media/is.svg": "static/media/is.d2df5720.svg",
  "static/media/it.svg": "static/media/it.39d095fb.svg",
  "static/media/je.svg": "static/media/je.ae6abe6e.svg",
  "static/media/jm.svg": "static/media/jm.bb9c6557.svg",
  "static/media/jo.svg": "static/media/jo.4ac727e7.svg",
  "static/media/jp.svg": "static/media/jp.c43049c2.svg",
  "static/media/ke.svg": "static/media/ke.cdbf16a8.svg",
  "static/media/kg.svg": "static/media/kg.5cd7c8e6.svg",
  "static/media/kh.svg": "static/media/kh.f7fb085f.svg",
  "static/media/ki.svg": "static/media/ki.f9be0945.svg",
  "static/media/km.svg": "static/media/km.73fc71a8.svg",
  "static/media/kn.svg": "static/media/kn.262dffc8.svg",
  "static/media/kp.svg": "static/media/kp.bd080ebd.svg",
  "static/media/kr.svg": "static/media/kr.4e13befd.svg",
  "static/media/kw.svg": "static/media/kw.8fda8b38.svg",
  "static/media/ky.svg": "static/media/ky.bea1dbdd.svg",
  "static/media/kz.svg": "static/media/kz.0e744e4e.svg",
  "static/media/la.svg": "static/media/la.90b7d665.svg",
  "static/media/lb.svg": "static/media/lb.818a9149.svg",
  "static/media/lc.svg": "static/media/lc.1f8cb283.svg",
  "static/media/li.svg": "static/media/li.963c7aa5.svg",
  "static/media/lk.svg": "static/media/lk.f4106211.svg",
  "static/media/lr.svg": "static/media/lr.5ed045da.svg",
  "static/media/ls.svg": "static/media/ls.bfa2f185.svg",
  "static/media/lt.svg": "static/media/lt.759bbeac.svg",
  "static/media/lu.svg": "static/media/lu.1ac4d60f.svg",
  "static/media/lv.svg": "static/media/lv.578aa332.svg",
  "static/media/ly.svg": "static/media/ly.f75b16b4.svg",
  "static/media/ma.svg": "static/media/ma.07997bbe.svg",
  "static/media/mc.svg": "static/media/mc.749e995c.svg",
  "static/media/md.svg": "static/media/md.bba429bf.svg",
  "static/media/me.svg": "static/media/me.0456e73c.svg",
  "static/media/mf.svg": "static/media/mf.210c4ae6.svg",
  "static/media/mg.svg": "static/media/mg.f3e5ef06.svg",
  "static/media/mh.svg": "static/media/mh.0b4162ec.svg",
  "static/media/mk.svg": "static/media/mk.91289334.svg",
  "static/media/ml.svg": "static/media/ml.7d0a81ea.svg",
  "static/media/mm.svg": "static/media/mm.7d0163c5.svg",
  "static/media/mn.svg": "static/media/mn.10765d4c.svg",
  "static/media/mo.svg": "static/media/mo.2cf849c3.svg",
  "static/media/mp.svg": "static/media/mp.9f377cb9.svg",
  "static/media/mq.svg": "static/media/mq.be16d4d4.svg",
  "static/media/mr.svg": "static/media/mr.eadf639d.svg",
  "static/media/ms.svg": "static/media/ms.98bf5c5e.svg",
  "static/media/mt.svg": "static/media/mt.32605840.svg",
  "static/media/mu.svg": "static/media/mu.f30f99d8.svg",
  "static/media/mv.svg": "static/media/mv.a82f329b.svg",
  "static/media/mw.svg": "static/media/mw.2d49b1f1.svg",
  "static/media/mx.svg": "static/media/mx.98615f7f.svg",
  "static/media/my.svg": "static/media/my.b7e5d431.svg",
  "static/media/mz.svg": "static/media/mz.90037d6e.svg",
  "static/media/na.svg": "static/media/na.24e7fe9c.svg",
  "static/media/nc.svg": "static/media/nc.c5187b82.svg",
  "static/media/ne.svg": "static/media/ne.01cfd5bd.svg",
  "static/media/nf.svg": "static/media/nf.3315be59.svg",
  "static/media/ng.svg": "static/media/ng.580254d5.svg",
  "static/media/ni.svg": "static/media/ni.5830a76a.svg",
  "static/media/nl.svg": "static/media/nl.09ccf3b3.svg",
  "static/media/no.svg": "static/media/no.f59f9b3f.svg",
  "static/media/notification.eot": "static/media/notification.c0d3c94c.eot",
  "static/media/notification.svg?s3g3t9": "static/media/notification.5bee74ca.svg",
  "static/media/notification.ttf?s3g3t9": "static/media/notification.0b4ac1dc.ttf",
  "static/media/notification.woff?s3g3t9": "static/media/notification.651771e1.woff",
  "static/media/np.svg": "static/media/np.a9421038.svg",
  "static/media/nr.svg": "static/media/nr.6bd0e7de.svg",
  "static/media/nu.svg": "static/media/nu.9d939773.svg",
  "static/media/nz.svg": "static/media/nz.248dbad1.svg",
  "static/media/om.svg": "static/media/om.2ebf43af.svg",
  "static/media/pa.svg": "static/media/pa.ced4a242.svg",
  "static/media/pe.svg": "static/media/pe.f0816c37.svg",
  "static/media/pf.svg": "static/media/pf.5f66e631.svg",
  "static/media/pg.svg": "static/media/pg.068910e2.svg",
  "static/media/ph.svg": "static/media/ph.b7bec49e.svg",
  "static/media/pk.svg": "static/media/pk.a79bdd99.svg",
  "static/media/pl.svg": "static/media/pl.4a936767.svg",
  "static/media/pm.svg": "static/media/pm.deb31e6c.svg",
  "static/media/pn.svg": "static/media/pn.011983ac.svg",
  "static/media/pr.svg": "static/media/pr.5fb60efd.svg",
  "static/media/ps.svg": "static/media/ps.0aecfee2.svg",
  "static/media/pt.svg": "static/media/pt.3c410042.svg",
  "static/media/pw.svg": "static/media/pw.def1819b.svg",
  "static/media/py.svg": "static/media/py.93030135.svg",
  "static/media/qa.svg": "static/media/qa.103a7434.svg",
  "static/media/re.svg": "static/media/re.db8d6956.svg",
  "static/media/ro.svg": "static/media/ro.e8cfe32c.svg",
  "static/media/rs.svg": "static/media/rs.4eaf546a.svg",
  "static/media/ru.svg": "static/media/ru.0f6e3867.svg",
  "static/media/rw.svg": "static/media/rw.3c99a189.svg",
  "static/media/sa.svg": "static/media/sa.d2578130.svg",
  "static/media/sb.svg": "static/media/sb.97023a5d.svg",
  "static/media/sc.svg": "static/media/sc.18d0ba5c.svg",
  "static/media/sd.svg": "static/media/sd.b91bc7d2.svg",
  "static/media/se.svg": "static/media/se.8fd954d4.svg",
  "static/media/sg.svg": "static/media/sg.d4402fa2.svg",
  "static/media/sh.svg": "static/media/sh.2c0e7a98.svg",
  "static/media/si.svg": "static/media/si.52d92007.svg",
  "static/media/sj.svg": "static/media/sj.5c02688a.svg",
  "static/media/sk.svg": "static/media/sk.e4388552.svg",
  "static/media/sl.svg": "static/media/sl.98468e8e.svg",
  "static/media/sm.svg": "static/media/sm.c1143f65.svg",
  "static/media/sn.svg": "static/media/sn.b3447079.svg",
  "static/media/so.svg": "static/media/so.c76d906b.svg",
  "static/media/sr.svg": "static/media/sr.2db9d92e.svg",
  "static/media/ss.svg": "static/media/ss.f0639fa5.svg",
  "static/media/st.svg": "static/media/st.dafd1b54.svg",
  "static/media/sv.svg": "static/media/sv.3079f878.svg",
  "static/media/sx.svg": "static/media/sx.1fc55ded.svg",
  "static/media/sy.svg": "static/media/sy.8b012c14.svg",
  "static/media/sz.svg": "static/media/sz.f3433e04.svg",
  "static/media/tc.svg": "static/media/tc.d8595b03.svg",
  "static/media/td.svg": "static/media/td.5bd58c9a.svg",
  "static/media/tf.svg": "static/media/tf.4ac80a53.svg",
  "static/media/tg.svg": "static/media/tg.b48a780a.svg",
  "static/media/th.svg": "static/media/th.a88d006a.svg",
  "static/media/tj.svg": "static/media/tj.76ed9f47.svg",
  "static/media/tk.svg": "static/media/tk.0f4fb02a.svg",
  "static/media/tl.svg": "static/media/tl.2c6671da.svg",
  "static/media/tm.svg": "static/media/tm.8e52383f.svg",
  "static/media/tn.svg": "static/media/tn.4ce2a1d2.svg",
  "static/media/to.svg": "static/media/to.10c5f4e3.svg",
  "static/media/tr.svg": "static/media/tr.60fb2434.svg",
  "static/media/tt.svg": "static/media/tt.c9d438bf.svg",
  "static/media/tv.svg": "static/media/tv.5c596d5c.svg",
  "static/media/tw.svg": "static/media/tw.22084f47.svg",
  "static/media/tz.svg": "static/media/tz.bdfcd45f.svg",
  "static/media/ua.svg": "static/media/ua.b4866f4d.svg",
  "static/media/ug.svg": "static/media/ug.cd35ef48.svg",
  "static/media/um.svg": "static/media/um.de83fba0.svg",
  "static/media/un.svg": "static/media/un.cd3d61b6.svg",
  "static/media/us.svg": "static/media/us.617c6a55.svg",
  "static/media/uy.svg": "static/media/uy.b193a351.svg",
  "static/media/uz.svg": "static/media/uz.ba5a631e.svg",
  "static/media/va.svg": "static/media/va.ccbda5d3.svg",
  "static/media/vc.svg": "static/media/vc.2fdb07a9.svg",
  "static/media/ve.svg": "static/media/ve.3b30a163.svg",
  "static/media/vg.svg": "static/media/vg.0c6aa7d2.svg",
  "static/media/vi.svg": "static/media/vi.7f8aaadb.svg",
  "static/media/vn.svg": "static/media/vn.0ec325e5.svg",
  "static/media/vu.svg": "static/media/vu.ef7409f3.svg",
  "static/media/wf.svg": "static/media/wf.ebb0ffa4.svg",
  "static/media/ws.svg": "static/media/ws.d23650da.svg",
  "static/media/ye.svg": "static/media/ye.c370e2e3.svg",
  "static/media/yt.svg": "static/media/yt.f1d1f1f5.svg",
  "static/media/za.svg": "static/media/za.73aeb814.svg",
  "static/media/zm.svg": "static/media/zm.645efc87.svg",
  "static/media/zw.svg": "static/media/zw.0db27ac5.svg"
}